{
    "editor": [
        {
            "icon": "",
            "key": "settings",
            "header": "Settings",
            "disabled": false,
            "fields": [
                {
                    "key": "Image",
                    "header": "Image",
                    "type": "image"
                },
                {
                    "key": "Headline",
                    "header": "Header",
                    "type": "text"
                },
                {
                    "key": "Description",
                    "header": "Description",
                    "type": "text"
                },
                {
                    "key": "Price",
                    "header": "Price",
                    "type": "text"
                }
            ]
        }
    ],
    "config": {
        "settings": {
            "Image": "https://frontend.apps.playcent.com/84ee0fcabd344e10aa1f6462176b3161/assets/download (36).jpeg",
            "Headline": "NFT art",
            "Description": "NFT of bitcoin creator",
            "Price": "1"
        }
    }
}